CS1010S Tutor Hack
…
1 Introduction

Midterms are right around the corner! I should spend more time revising. However, I still need to grade my students assignments. With limited data from coursemology.org, I try to find a pattern in my students submission time. Meanwhile, maybe I can find insights to give to my students.

2 Read data

Download data of my 13 students from coursemology.org

library(tidyverse)
fp = "../data/coursemo.csv"
cs1010s <- read_csv(fp) %>% select(!Status) 

Students names are anonymized to two letter abbreviations.

## # A tibble: 153 x 6
##    Name  Title                         Submitted           Grade   Max   EXP
##    <chr> <chr>                         <dttm>              <dbl> <dbl> <dbl>
##  1 WW    Mission 7: Rogue Train        2021-09-26 14:32:00  52      53   491
##  2 CZ    Mission 7: Rogue Train        2021-09-26 02:13:00  51      53   481
##  3 GX    Mission 7: Rogue Train        2021-09-25 15:33:00  53      53   500
##  4 VA    Mission 8: 3-station IPPT     2021-09-24 18:32:00  18      18   500
##  5 CY    Mission 8: 3-station IPPT     2021-09-24 15:21:00  17      18   472
##  6 LZ    Mission 3: More than Thrice   2021-09-24 14:54:00   7      10   280
##  7 VA    Side Quest 7.1: Lazy Susan    2021-09-23 15:48:00  14      14   250
##  8 LY    Mission 7: Rogue Train        2021-09-23 13:40:00  51      53   481
##  9 ZY    Mission 4: Curve Introduction 2021-09-23 13:28:00  10.5    13   323
## 10 ZY    Mission 3: More than Thrice   2021-09-23 13:14:00   9      10   360
## # ... with 143 more rows
…
